<?xml version="1.0" encoding="UTF-8"?>
<session version="1.0">
<refactoring comment="Copy element &apos;TroisPoints.java&apos; to &apos;tp/src/tp&apos;&#x0D;&#x0A;- Original project: &apos;nouveau projet 8&apos;&#x0D;&#x0A;- Destination element: &apos;tp/src/tp&apos;&#x0D;&#x0A;- Original element: &apos;main.TroisPoints.java&apos;" description="Copy compilation unit" destination="=tp/src&lt;tp" element1="/src&lt;main{TroisPoints.java" files="0" flags="589830" folders="0" id="org.eclipse.jdt.ui.copy" policy="org.eclipse.jdt.ui.copyResources" stamp="1557239172500" units="1" version="1.0"/>
</session>